module github.com/AccumulateNetwork/accumulate

go 1.17

require (
	github.com/AccumulateNetwork/jsonrpc2/v15 v15.0.0-20210802145948-43d2d974a106
	github.com/Factom-Asset-Tokens/factom v0.0.0-20200222022020-d06cbcfe6ece
	github.com/boltdb/bolt v1.3.1
	github.com/davecgh/go-spew v1.1.2-0.20180830191138-d8f796af33cc
	github.com/dgraph-io/badger v1.6.2
	github.com/dgraph-io/badger/v3 v3.2011.1
	github.com/docker/cli v20.10.12+incompatible
	github.com/dustin/go-humanize v1.0.0
	github.com/fatih/color v1.13.0
	github.com/getsentry/sentry-go v0.11.0
	github.com/go-playground/validator/v10 v10.9.0
	github.com/golang/mock v1.5.0
	github.com/kardianos/service v1.2.0
	github.com/mdp/qrterminal v1.0.1
	github.com/mitchellh/mapstructure v1.4.2
	github.com/pelletier/go-toml v1.9.4
	github.com/prometheus/client_golang v1.11.0
	github.com/prometheus/common v0.30.0
	github.com/rinchsan/gosimports v0.1.2
	github.com/rs/zerolog v1.24.0
	github.com/spf13/cobra v1.2.1
	github.com/spf13/pflag v1.0.5
	github.com/spf13/viper v1.8.1
	github.com/stretchr/testify v1.7.0
	github.com/tendermint/tendermint v0.35.0-rc1
	github.com/tyler-smith/go-bip32 v1.0.0
	github.com/tyler-smith/go-bip39 v1.1.0
	github.com/ybbus/jsonrpc/v2 v2.1.6
	golang.org/x/crypto v0.0.0-20210711020723-a769d52b0f97
	golang.org/x/exp v0.0.0-20200331195152-e8c3332aa8e5
	golang.org/x/sync v0.0.0-20210220032951-036812b2e83c
	golang.org/x/sys v0.0.0-20211117180635-dee7805ff2e1
	golang.org/x/term v0.0.0-20210927222741-03fcf44c2211
	golang.org/x/tools v0.1.7
	gopkg.in/yaml.v3 v3.0.0-20210107192922-496545a6307b
	gotest.tools/gotestsum v1.7.0
)

require (
	github.com/AdamSLevy/go-merkle v0.0.0-20190611101253-ca33344a884d // indirect
	github.com/AdamSLevy/jsonrpc2/v14 v14.0.0 // indirect
	github.com/AndreasBriese/bbloom v0.0.0-20190825152654-46b345b51c96 // indirect
	github.com/DataDog/zstd v1.4.5 // indirect
	github.com/Factom-Asset-Tokens/base58 v0.0.0-20191118025050-4fa02e92ec20 // indirect
	github.com/FactomProject/basen v0.0.0-20150613233007-fe3947df716e // indirect
	github.com/FactomProject/btcutilecc v0.0.0-20130527213604-d3a63a5752ec // indirect
	github.com/Workiva/go-datastructures v1.0.53 // indirect
	github.com/beorn7/perks v1.0.1 // indirect
	github.com/btcsuite/btcd v0.22.0-beta // indirect
	github.com/cespare/xxhash v1.1.0 // indirect
	github.com/cespare/xxhash/v2 v2.1.2 // indirect
	github.com/dgraph-io/badger/v2 v2.2007.2 // indirect
	github.com/dgraph-io/ristretto v0.0.4-0.20210122082011-bb5d392ed82d // indirect
	github.com/dgryski/go-farm v0.0.0-20200201041132-a6ae2369ad13 // indirect
	github.com/dnephin/pflag v1.0.7 // indirect
	github.com/fsnotify/fsnotify v1.5.1 // indirect
	github.com/go-kit/kit v0.11.0 // indirect
	github.com/go-playground/locales v0.14.0 // indirect
	github.com/go-playground/universal-translator v0.18.0 // indirect
	github.com/gogo/protobuf v1.3.2 // indirect
	github.com/golang/groupcache v0.0.0-20200121045136-8c9f03a8e57e // indirect
	github.com/golang/protobuf v1.5.2 // indirect
	github.com/golang/snappy v0.0.1 // indirect
	github.com/google/btree v1.0.0 // indirect
	github.com/google/flatbuffers v1.12.0 // indirect
	github.com/google/go-cmp v0.5.6 // indirect
	github.com/google/orderedcode v0.0.1 // indirect
	github.com/google/shlex v0.0.0-20191202100458-e7afc7fbc510 // indirect
	github.com/google/uuid v1.3.0 // indirect
	github.com/gorilla/websocket v1.4.2 // indirect
	github.com/grpc-ecosystem/go-grpc-middleware v1.3.0 // indirect
	github.com/grpc-ecosystem/go-grpc-prometheus v1.2.0 // indirect
	github.com/hashicorp/hcl v1.0.0 // indirect
	github.com/inconshreveable/mousetrap v1.0.0 // indirect
	github.com/jmhodges/levigo v1.0.0 // indirect
	github.com/jonboulle/clockwork v0.2.2 // indirect
	github.com/json-iterator/go v1.1.11 // indirect
	github.com/leodido/go-urn v1.2.1 // indirect
	github.com/lib/pq v1.10.3 // indirect
	github.com/libp2p/go-buffer-pool v0.0.2 // indirect
	github.com/magiconair/properties v1.8.5 // indirect
	github.com/mattn/go-colorable v0.1.9 // indirect
	github.com/mattn/go-isatty v0.0.14 // indirect
	github.com/matttproud/golang_protobuf_extensions v1.0.1 // indirect
	github.com/minio/highwayhash v1.0.2 // indirect
	github.com/modern-go/concurrent v0.0.0-20180306012644-bacd9c7ef1dd // indirect
	github.com/modern-go/reflect2 v1.0.1 // indirect
	github.com/oasisprotocol/curve25519-voi v0.0.0-20210609091139-0a56a4bca00b // indirect
	github.com/petermattis/goid v0.0.0-20180202154549-b0b1615b78e5 // indirect
	github.com/pkg/errors v0.9.1 // indirect
	github.com/pmezard/go-difflib v1.0.0 // indirect
	github.com/prometheus/client_model v0.2.0 // indirect
	github.com/prometheus/procfs v0.7.3 // indirect
	github.com/rcrowley/go-metrics v0.0.0-20200313005456-10cdbea86bc0 // indirect
	github.com/rs/cors v1.8.0 // indirect
	github.com/sasha-s/go-deadlock v0.2.1-0.20190427202633-1595213edefa // indirect
	github.com/spf13/afero v1.6.0 // indirect
	github.com/spf13/cast v1.4.1 // indirect
	github.com/spf13/jwalterweatherman v1.1.0 // indirect
	github.com/stretchr/objx v0.3.0 // indirect
	github.com/subosito/gotenv v1.2.0 // indirect
	github.com/syndtr/goleveldb v1.0.1-0.20200815110645-5c35d600f0ca // indirect
	github.com/tecbot/gorocksdb v0.0.0-20191217155057-f0fad39f321c // indirect
	github.com/tendermint/tm-db v0.6.4 // indirect
	go.etcd.io/bbolt v1.3.5 // indirect
	go.opencensus.io v0.23.0 // indirect
	golang.org/x/mod v0.5.1 // indirect
	golang.org/x/net v0.0.0-20210805182204-aaa1db679c0d // indirect
	golang.org/x/text v0.3.7 // indirect
	golang.org/x/xerrors v0.0.0-20200804184101-5ec99f83aff1 // indirect
	google.golang.org/genproto v0.0.0-20210602131652-f16073e35f0c // indirect
	google.golang.org/grpc v1.40.0 // indirect
	google.golang.org/protobuf v1.27.1 // indirect
	gopkg.in/ini.v1 v1.63.2 // indirect
	gopkg.in/yaml.v2 v2.4.0 // indirect
	rsc.io/qr v0.2.0 // indirect
)

replace github.com/tendermint/tendermint v0.35.0-rc1 => github.com/AccumulateNetwork/tendermint v0.35.0-rc1.0.20211104230238-906615e51028
